{
  "botToken" : "PLACE YOUR BOT TOKEN HERE",
  "ownerId" : "PLACE YOUR DISCORD ID HERE",
  "cmdPrefix": "!",
  "helpCmd": "bodgehelp",
  "eventPlannerRole": "PLACE THE ROLE NAME YOU WISH TO RESTRICT for !TRIAL COMMAND",
  "adminRole": "PLACE THE ROLE NAME YOU WISH TO RESTRICT for !EVENTADMIN COMMAND",
  "channels":{
    "trials" : "TRIALS CHANNEL ID",
    "dungeons" : "DUNGEONS CHANNEL ID",
    "pledges" : "PLEDGE CHANNEL ID",
    "animaldiscoverychannel": "CHANNEL ID FOR PETS"
  },
  "database": {
    "host":"localhost:3306",
    "database":"TesoEventBot",
    "username":"root",
    "password":"password",
    "SSL":"false"
  },
  "api": {
    "unsplash": "UNSPLASH API KEY https://unsplash.com/developers",
    "thecatapi": "TheCatAPI Key https://thecatapi.com"
  }
}